<svg width="46" height="46" viewBox="0 0 46 46" fill="none" xmlns="http://www.w3.org/2000/svg">
<path d="M21.674 11.8727L7.47073 18.866C5.41044 19.8804 4.15747 22.0294 4.28945 24.3221L4.67327 30.9888L0.623291 35.0387L11.5846 46L19.8682 37.7164L17.8751 35.7233L21.674 11.8727Z" fill="#FFDDCE"/>
<path d="M21.6739 11.8727L21.2698 14.4115L12.2227 18.866C10.1628 19.8808 8.90939 22.0298 9.04119 24.3221L9.42572 30.9887L2.99937 37.4151L0.622559 35.0392L4.67298 30.9887L4.28926 24.3221C4.15665 22.0298 5.41006 19.8809 7.46991 18.866L21.6739 11.8727Z" fill="#FFCBBE"/>
<path d="M41.8817 0H20.5743C18.6437 0 17.0786 1.56508 17.0786 3.49564V27.9846C17.0786 29.9152 18.6437 31.4803 20.5743 31.4803H41.8818C43.8123 31.4803 45.3774 29.9152 45.3774 27.9846V3.49564C45.3774 1.56508 43.8123 0 41.8817 0V0Z" fill="#F8F6F9"/>
<path d="M41.3017 22.521H30.3495C29.9661 22.521 29.6553 22.2102 29.6553 21.8268C29.6553 21.4433 29.966 21.1326 30.3495 21.1326H41.3017C41.6851 21.1326 41.9959 21.4433 41.9959 21.8268C41.9959 22.2102 41.6851 22.521 41.3017 22.521Z" fill="#407093"/>
<path d="M37.3269 24.9306H30.3495C29.9661 24.9306 29.6553 24.6198 29.6553 24.2363C29.6553 23.8529 29.966 23.5421 30.3495 23.5421H37.3269C37.7103 23.5421 38.0212 23.8529 38.0212 24.2363C38.0212 24.6198 37.7104 24.9306 37.3269 24.9306Z" fill="#407093"/>
<path d="M23.0335 20.5766L14.801 28.8091C12.3971 31.213 12.3971 35.1106 14.801 37.5145C17.205 39.9185 21.1025 39.9185 23.5064 37.5145C25.3039 35.717 25.7569 33.0845 24.8663 30.8656L29.0944 26.6375C30.7681 24.9638 30.7681 22.2502 29.0944 20.5766C27.4206 18.9029 24.7071 18.9029 23.0335 20.5766Z" fill="#FFDDCE"/>
<path d="M14.8015 28.8087L23.0335 20.5767C24.7079 18.9023 27.4207 18.9023 29.0942 20.5767H29.0951C29.3135 20.7951 29.5042 21.0321 29.6653 21.2819C28.96 20.8247 28.1491 20.5961 27.3393 20.5961C26.2425 20.5961 25.1457 21.0154 24.309 21.8521L16.0769 30.0841L14.8015 28.8087Z" fill="#FFCBBE"/>
<path d="M22.885 10.3428C22.6883 10.3428 22.4995 10.2592 22.3672 10.1108L20.4675 7.98225C20.2123 7.69619 20.2372 7.25739 20.5232 7.00215C20.8091 6.7469 21.248 6.7717 21.5033 7.05785L22.7772 8.48529L25.6268 3.77271C25.8253 3.44478 26.2519 3.33958 26.58 3.53786C26.9081 3.73624 27.0133 4.16299 26.8149 4.4911L23.4791 10.0079C23.3547 10.2149 23.1264 10.3435 22.885 10.3428Z" fill="#95D6A4"/>
<path d="M41.3017 6.32356H30.3495C29.9661 6.32356 29.6553 6.01279 29.6553 5.62934C29.6553 5.24598 29.966 4.93512 30.3495 4.93512H41.3017C41.6851 4.93512 41.9959 5.24589 41.9959 5.62934C41.9959 6.01279 41.6851 6.32356 41.3017 6.32356Z" fill="#407093"/>
<path d="M37.3269 8.73317H30.3495C29.9661 8.73317 29.6553 8.4224 29.6553 8.03895C29.6553 7.6555 29.966 7.34473 30.3495 7.34473H37.3269C37.7103 7.34473 38.0212 7.6555 38.0212 8.03895C38.0212 8.4224 37.7104 8.73317 37.3269 8.73317Z" fill="#407093"/>
<path d="M41.3017 14.1206H30.3495C29.9661 14.1206 29.6553 13.8098 29.6553 13.4263C29.6553 13.0429 29.966 12.7321 30.3495 12.7321H41.3017C41.6851 12.7321 41.9959 13.0429 41.9959 13.4263C41.9959 13.8098 41.6851 14.1206 41.3017 14.1206Z" fill="#407093"/>
<path d="M37.3269 16.5301H30.3495C29.9661 16.5301 29.6553 16.2193 29.6553 15.8359C29.6553 15.4524 29.966 15.1417 30.3495 15.1417H37.3269C37.7103 15.1417 38.0212 15.4524 38.0212 15.8359C38.0212 16.2193 37.7104 16.5301 37.3269 16.5301Z" fill="#407093"/>
</svg>
